[
  {
      "n_GenType": 20,
      "window": 5
  },
  {
      "n_GenType": 20,
      "window": 4
  },
  {
      "n_GenType": 7,
      "ordinate_values": [0.2,0.9,0.6],
      "length_of_segment":[50,50]
  },
  {
    "n_GenType": 7,
    "ordinate_values": [1,1],
    "length_of_segment":[100]
}

]
